<?xml version="1.0" encoding="utf-8"?>
<!-- Generator: Adobe Illustrator 16.0.0, SVG Export Plug-In . SVG Version: 6.00 Build 0)  -->
<!DOCTYPE svg PUBLIC "-//W3C//DTD SVG 1.1//EN" "http://www.w3.org/Graphics/SVG/1.1/DTD/svg11.dtd">
<svg version="1.1" id="Layer_1" xmlns="http://www.w3.org/2000/svg" xmlns:xlink="http://www.w3.org/1999/xlink" x="0px" y="0px"
	 width="258.029px" height="128.088px" viewBox="0 0 258.029 128.088" enable-background="new 0 0 258.029 128.088"
	 xml:space="preserve">
<g>
	<g>
		<g>
			<rect x="0" y="-0.942" fill="#DC0B22" width="129.029" height="129.03"/>
			<path fill="#FFFFFF" d="M90.165,56.514h-6.867V27.846c0-0.722-0.585-1.308-1.308-1.308H63.85h-2.988
				c-0.396,0-0.782,0.104-1.124,0.302l-5.135,2.978l-8.228,4.771c-0.403,0.233-0.651,0.666-0.651,1.132v9.817h3.278v-7.93
				c0-0.466,0.249-0.896,0.652-1.131l11.087-6.428c0.262-0.151,0.559-0.231,0.861-0.231h17.105c0.723,0,1.309,0.585,1.309,1.309
				v25.389h-6.798c-0.724,0-1.309,0.585-1.309,1.309v25.255H62.34V46.844c0-0.722-0.585-1.308-1.308-1.308H59.06v3.278v34.262h-8.75
				c-0.724,0-1.309-0.585-1.309-1.309V48.816h-3.278v36.233c0,0.722,0.586,1.308,1.309,1.308H59.06v5.818
				c0,0.722,0.585,1.308,1.309,1.308h13.516c0.723,0,1.309-0.585,1.309-1.308v-5.818h4.826v9.664c0,0.723-0.586,1.309-1.309,1.309
				H42.145c-0.723,0-1.309-0.586-1.309-1.309V50.124c0-0.723,0.585-1.309,1.309-1.309h3.58v-3.278h-6.858
				c-0.723,0-1.309,0.585-1.309,1.308v52.456c0,0.722,0.585,1.308,1.309,1.308H81.99c0.723,0,1.308-0.585,1.308-1.308V86.356h6.867
				c0.723,0,1.309-0.585,1.309-1.308V57.822C91.472,57.1,90.886,56.514,90.165,56.514z M71.914,88.895
				c0,0.723-0.586,1.309-1.309,1.309h-6.958c-0.723,0-1.309-0.585-1.309-1.309v-2.539h9.573L71.914,88.895L71.914,88.895z
				 M80.019,83.077h-4.826V61.101c0-0.722,0.585-1.308,1.309-1.308h3.52L80.019,83.077L80.019,83.077z M88.193,81.769
				c0,0.724-0.586,1.309-1.309,1.309h-3.588V59.794h3.588c0.723,0,1.309,0.585,1.309,1.308V81.769z"/>
		</g>
		<rect x="45.725" y="45.537" fill="#FFFFFF" width="13.686" height="3.293"/>
	</g>
	<g>
		<rect x="129.04" y="-0.942" fill="#384F54" width="128.989" height="128.989"/>
		<g>
			<path fill="#FFFFFF" d="M171.604,54.874v-2.752c0-0.107,0-0.216,0.054-0.324l5.503-12.111c0.082-0.161,0.188-0.216,0.378-0.216
				h3.426c0.188,0,0.243,0.108,0.188,0.271l-5.503,12.059v0.08h3.373c0.106,0,0.162-0.055,0.162-0.16v-3.967
				c0-0.162,0.106-0.271,0.27-0.271h3.129c0.162,0,0.271,0.108,0.271,0.271v3.967c0,0.105,0.055,0.16,0.162,0.16h1.214
				c0.163,0,0.271,0.108,0.271,0.271v2.727c0,0.162-0.106,0.27-0.271,0.27h-1.214c-0.106,0-0.162,0.056-0.162,0.163v2.237
				c0,0.162-0.106,0.271-0.271,0.271h-3.129c-0.162,0-0.27-0.107-0.27-0.271v-2.237c0-0.107-0.055-0.163-0.162-0.163h-7.148
				C171.711,55.143,171.604,55.036,171.604,54.874z"/>
			<path fill="#FFFFFF" d="M188.734,47.805l4.452-8.146c0.081-0.16,0.135-0.188,0.323-0.188h3.427c0.216,0,0.271,0.108,0.188,0.271
				l-3.885,7.094l0.055,0.056c0.188-0.081,0.646-0.161,1.132-0.161c2.889,0,5.262,2.156,5.262,5.529
				c0,3.695-2.671,5.854-6.148,5.854c-3.507,0-6.15-2.158-6.15-5.773C187.385,50.773,187.871,49.37,188.734,47.805z M193.537,54.928
				c1.482,0,2.428-1.053,2.428-2.537c0-1.51-0.943-2.562-2.428-2.562c-1.483,0-2.429,1.055-2.429,2.562
				C191.108,53.875,192.052,54.928,193.537,54.928z"/>
			<path fill="#FFFFFF" d="M208.104,43.732h-0.054l-2.913,1.996c-0.162,0.108-0.298,0.057-0.298-0.162v-3.345
				c0-0.161,0.056-0.27,0.188-0.379l3.074-2.211c0.135-0.107,0.297-0.162,0.484-0.162h3.021c0.161,0,0.27,0.107,0.27,0.271v17.805
				c0,0.162-0.106,0.271-0.27,0.271h-3.236c-0.162,0-0.271-0.107-0.271-0.271V43.732H208.104z"/>
			<path fill="#FFFFFF" d="M160.839,72.113c0-0.16,0.106-0.271,0.27-0.271h6.826c3.209,0,5.447,1.378,6.339,4.129
				c0.323,1.025,0.484,2.05,0.484,5.045c0,2.992-0.161,4.019-0.484,5.043c-0.892,2.751-3.129,4.128-6.339,4.128h-6.826
				c-0.162,0-0.27-0.107-0.27-0.271V72.113z M164.966,86.654h2.077c1.834,0,2.939-0.541,3.397-2.023
				c0.188-0.537,0.297-1.239,0.297-3.612c0-2.376-0.107-3.077-0.297-3.616c-0.458-1.481-1.563-2.022-3.397-2.022h-2.077
				c-0.106,0-0.161,0.056-0.161,0.164v10.951C164.805,86.6,164.859,86.654,164.966,86.654z"/>
			<path fill="#FFFFFF" d="M178.375,72.113c0-0.16,0.106-0.271,0.271-0.271h11.762c0.161,0,0.271,0.109,0.271,0.271v2.887
				c0,0.164-0.109,0.271-0.271,0.271h-7.904c-0.106,0-0.162,0.056-0.162,0.161v3.643c0,0.107,0.055,0.161,0.162,0.161h6.583
				c0.162,0,0.27,0.107,0.27,0.271v2.861c0,0.158-0.106,0.27-0.27,0.27h-6.583c-0.106,0-0.162,0.054-0.162,0.16V86.6
				c0,0.107,0.055,0.161,0.162,0.161h7.904c0.161,0,0.271,0.108,0.271,0.271v2.887c0,0.162-0.109,0.271-0.271,0.271h-11.763
				c-0.162,0-0.271-0.107-0.271-0.271L178.375,72.113L178.375,72.113z"/>
			<path fill="#FFFFFF" d="M199.092,72.113c0.056-0.16,0.162-0.271,0.352-0.271h3.399c0.188,0,0.297,0.109,0.352,0.271l6.204,17.807
				c0.055,0.16,0,0.27-0.188,0.27h-3.507c-0.188,0-0.296-0.081-0.352-0.27l-1.053-3.211h-6.421l-1.023,3.211
				c-0.055,0.188-0.162,0.27-0.352,0.27h-3.533c-0.188,0-0.242-0.106-0.188-0.27L199.092,72.113z M203.22,83.336l-2.077-6.422
				h-0.081l-2.077,6.422H203.22z"/>
			<path fill="#FFFFFF" d="M212.071,72.113c0-0.16,0.107-0.271,0.271-0.271h3.237c0.188,0,0.351,0.08,0.458,0.271l6.474,11.547
				h0.137V72.113c0-0.16,0.106-0.271,0.271-0.271h3.048c0.162,0,0.271,0.109,0.271,0.271v17.807c0,0.16-0.107,0.27-0.271,0.27h-3.21
				c-0.216,0-0.352-0.081-0.458-0.27l-6.502-11.521h-0.135v11.521c0,0.16-0.106,0.27-0.27,0.27h-3.051
				c-0.161,0-0.271-0.106-0.271-0.27L212.071,72.113L212.071,72.113z"/>
		</g>
	</g>
</g>
</svg>
