<?xml version="1.0" encoding="utf-8"?>
<!-- Generator: Adobe Illustrator 16.0.0, SVG Export Plug-In . SVG Version: 6.00 Build 0)  -->
<!DOCTYPE svg PUBLIC "-//W3C//DTD SVG 1.1//EN" "http://www.w3.org/Graphics/SVG/1.1/DTD/svg11.dtd">
<svg version="1.1" xmlns="http://www.w3.org/2000/svg" xmlns:xlink="http://www.w3.org/1999/xlink" x="0px" y="0px"
	 width="54.895px" height="80.146px" viewBox="0 0 54.895 80.146" enable-background="new 0 0 54.895 80.146" xml:space="preserve">
<g id="Content" display="none">
	<g display="inline">
		<defs>
			<rect id="SVGID_3_" x="390.903" y="-98.306" width="1200" height="717.764"/>
		</defs>
		<clipPath id="SVGID_2_">
			<use xlink:href="#SVGID_3_"  overflow="visible"/>
		</clipPath>
		<g clip-path="url(#SVGID_2_)">
		</g>
	</g>
	<g display="inline">
		<g>
			<path d="M106.905-75.842l14.23,14.229V1.969H56.542L42.312-12.261v-63.581H106.905 M108.231-79.042H39.112v68.106L55.216,5.169
				h69.119v-68.106L108.231-79.042L108.231-79.042z"/>
		</g>
	</g>
</g>
<g id="Content_V2">
	<g>
		<path fill="#FFFFFF" d="M45.24,80.146H1.331C0.596,80.146,0,79.551,0,78.815V1.331C0,0.596,0.596,0,1.331,0h22.57
			c0.736,0,1.332,0.596,1.332,1.331v3.398H45.24c0.735,0,1.331,0.597,1.331,1.332v29.189h6.992c0.734,0,1.331,0.597,1.331,1.332
			v27.722c0,0.735-0.597,1.331-1.331,1.331h-6.992v13.18C46.571,79.551,45.976,80.146,45.24,80.146z M4.67,76.808h37.231
			c0.735,0,1.331-0.596,1.331-1.331v-9.841h-4.913v5.925c0,0.734-0.597,1.331-1.332,1.331H23.226c-0.734,0-1.331-0.597-1.331-1.331
			v-5.925H9.647c-0.736,0-1.332-0.596-1.332-1.331V14.078c0-0.476,0.253-0.914,0.664-1.152l12.915-7.488V3.339H4.67
			c-0.735,0-1.331,0.596-1.331,1.331v70.807C3.339,76.212,3.935,76.808,4.67,76.808z M26.564,69.553h7.084
			c0.735,0,1.332-0.597,1.332-1.332v-2.585h-9.747v2.585C25.233,68.956,25.829,69.553,26.564,69.553z M46.571,62.297h3.653
			c0.735,0,1.331-0.596,1.331-1.331V39.922c0-0.735-0.596-1.331-1.331-1.331h-3.653V62.297z M38.319,62.297h4.913V38.591H39.65
			c-0.735,0-1.331,0.596-1.331,1.331V62.297z M25.233,62.297h9.747V36.583c0-0.735,0.596-1.332,1.331-1.332h6.921V9.4
			c0-0.735-0.596-1.331-1.331-1.331H25.233V62.297z M12.985,62.297h8.909V9.298l-9.577,5.552c-0.41,0.238-0.663,0.678-0.663,1.152
			v44.964C11.654,61.701,12.25,62.297,12.985,62.297z"/>
	</g>
</g>
<g id="Guides" display="none">
</g>
</svg>
